Part 2
…
## The following objects are masked from 'package:stats':
## 
##     filter, lag

## The following objects are masked from 'package:base':
## 
##     intersect, setdiff, setequal, union

Oscars %>%
  group_by(movie) %>%
  summarise(n = n()) %>%
  arrange(desc(n))

## # A tibble: 336 x 2
##    movie                        n
##    <fct>                    <int>
##  1 Million Dollar Baby          5
##  2 Network                      4
##  3 West Side Story              4
##  4 A Streetcar Named Desire     3
##  5 Cabaret                      3
##  6 From Here to Eternity        3
##  7 Going My Way                 3
##  8 Gone with the Wind           3
##  9 It Happened One Night        3
## 10 Kramer vs. Kramer            3
## #  with 326 more rows

library(dplyr)
library(tidyr)
Oscars %>%
  filter(award == "Best Actress") %>%
  separate(person, c("first", "last"), sep = " ") %>%
  group_by(first)%>%
  summarise(n= n())%>%
  arrange(desc(n))

## Warning: Expected 2 pieces. Additional pieces discarded in 2 rows [19, 22].

## Warning: Expected 2 pieces. Missing pieces filled with `NA` in 1 rows [61].

## # A tibble: 63 x 2
##    first         n
##    <chr>     <int>
##  1 Hilary        4
##  2 Katharine     4
##  3 Elizabeth     3
##  4 Helen         3
##  5 Jane          3
##  6 Bette         2
##  7 Faye          2
##  8 Ginger        2
##  9 Glenda        2
## 10 Gwyneth       2
## #  with 53 more rows
…
## Warning: Expected 2 pieces. Additional pieces discarded in 55 rows [7,
## 9, 11, 15, 19, 20, 31, 33, 34, 36, 37, 62, 71, 72, 74, 93, 95, 99, 107,
## 108, ...].

## Warning: Expected 2 pieces. Missing pieces filled with `NA` in 37 rows [18,
## 38, 53, 61, 64, 111, 120, 125, 135, 140, 157, 162, 183, 192, 195, 204, 205,
## 212, 213, 221, ...].

## # A tibble: 98 x 2
##    state          n
##    <chr>      <int>
##  1 " Ca"         45
##  2 <NA>          37
##  3 " England"    30
##  4 " Ny"         29
##  5 " Il"         21
##  6 " Ma"         14
##  7 " Mo"         14
##  8 " Nj"         13
##  9 " Pa"         11
## 10 " Ne"         10
## #  with 88 more rows
…
